{
  "project_info": {
    "project_number": "499377299276",
    "firebase_url": "https://punk-beer-14992.firebaseio.com",
    "project_id": "punk-beer-14992",
    "storage_bucket": "punk-beer-14992.appspot.com"
  },
  "client": [
    {
      "client_info": {
        "mobilesdk_app_id": "1:499377299276:android:0e93cf8c981acf333179e9",
        "android_client_info": {
          "package_name": "com.punkbeer.app"
        }
      },
      "oauth_client": [
        {
          "client_id": "499377299276-ossauhjdhh4l64t53icm7p6qofmac2i6.apps.googleusercontent.com",
          "client_type": 3
        }
      ],
      "api_key": [
        {
          "current_key": "AIzaSyAvqY0qCosjdDORNmArvzCXpDhWfd_2NyU"
        }
      ],
      "services": {
        "appinvite_service": {
          "other_platform_oauth_client": [
            {
              "client_id": "499377299276-ossauhjdhh4l64t53icm7p6qofmac2i6.apps.googleusercontent.com",
              "client_type": 3
            }
          ]
        }
      }
    }
  ],
  "configuration_version": "1"
}